{"photos":{"page":1,"pages":1364,"perpage":100,"total":136323,"photo":[{"id":"51365708145","owner":"65293745@N00","secret":"f5f4ba84a5","server":"0","farm":0,"title":"Hannah, Leah, Mauwa and friend watching kittens","ispublic":1,"isfriend":0,"isfamily":0},{"id":"51364697511","owner":"65293745@N00","secret":"e047dfb009","server":"65535","farm":66,"title":"Hannah, Leah and Mauwa watching kittens","ispublic":1,"isfriend":0,"isfamily":0},{"id":"51364697376","owner":"65293745@N00","secret":"c3ccf6929d","server":"65535","farm":66,"title":"Kittens","ispublic":1,"isfriend":0,"isfamily":0},{"id":"51365343369","owner":"148179219@N03","secret":"25b8322658","server":"65535","farm":66,"title":"poedie (206a)","ispublic":1,"isfriend":0,"isfamily":0},{"id":"51365453320","owner":"139523059@N02","secret":"d0f9990c7b","server":"65535","farm":66,"title":"Love and comfort - Liebe und Geborgenheit","ispublic":1,"isfriend":0,"isfamily":0},{"id":"51363680782","owner":"46061822@N02","secret":"9d8f8b4211","server":"65535","farm":66,"title":"Dreamy Eyes","ispublic":1,"isfriend":0,"isfamily":0},{"id":"51363677717","owner":"46061822@N02","secret":"68c8284329","server":"65535","farm":66,"title":"Fuego","ispublic":1,"isfriend":0,"isfamily":0},{"id":"51363605937","owner":"193656523@N06","secret":"b312bb6436","server":"65535","farm":66,"title":"Kitten","ispublic":1,"isfriend":0,"isfamily":0},{"id":"51364364021","owner":"193656523@N06","secret":"919f88b00f","server":"65535","farm":66,"title":"Kitten_dark","ispublic":1,"isfriend":0,"isfamily":0},{"id":"51364319851","owner":"163098395@N07","secret":"e2d324e146","server":"65535","farm":66,"title":"Freunde...","ispublic":1,"isfriend":0,"isfamily":0},{"id":"51364299951","owner":"97960535@N06","secret":"f921569283","server":"65535","farm":66,"title":"Elektra","ispublic":1,"isfriend":0,"isfamily":0},{"id":"51364238101","owner":"193484490@N06","secret":"72466562a1","server":"65535","farm":66,"title":"Independent Call Girls in Ras Al Khaimah 0S&S8^31@18-35 RAK Independent Call Girls","ispublic":1,"isfriend":0,"isfamily":0},{"id":"51364864594","owner":"89578620@N00","secret":"e2210757ec","server":"65535","farm":66,"title":"Pumpkin the ginger kitten (by a better camera)","ispublic":1,"isfriend":0,"isfamily":0},{"id":"51363369142","owner":"89578620@N00","secret":"240b9a2447","server":"65535","farm":66,"title":"Pumpkin the ginger kitten (by a better camera)","ispublic":1,"isfriend":0,"isfamily":0},{"id":"51364127481","owner":"89578620@N00","secret":"d11d986f17","server":"65535","farm":66,"title":"Pumpkin the ginger kitten (by a better camera)","ispublic":1,"isfriend":0,"isfamily":0},{"id":"51364127396","owner":"89578620@N00","secret":"3b49dced03","server":"65535","farm":66,"title":"Pumpkin the ginger kitten (by a better camera)","ispublic":1,"isfriend":0,"isfamily":0},{"id":"51363368902","owner":"89578620@N00","secret":"87edceafc9","server":"65535","farm":66,"title":"Pumpkin the ginger kitten (by a better camera)","ispublic":1,"isfriend":0,"isfamily":0},{"id":"51364347248","owner":"89578620@N00","secret":"746719706e","server":"65535","farm":66,"title":"Pumpkin the ginger kitten (by a better camera)","ispublic":1,"isfriend":0,"isfamily":0},{"id":"51364347178","owner":"89578620@N00","secret":"46f75d3edd","server":"65535","farm":66,"title":"Pumpkin the ginger kitten (by a better camera)","ispublic":1,"isfriend":0,"isfamily":0},{"id":"51364864189","owner":"89578620@N00","secret":"b9d7166063","server":"65535","farm":66,"title":"Pumpkin the ginger kitten (by a better camera)","ispublic":1,"isfriend":0,"isfamily":0},{"id":"51364127051","owner":"89578620@N00","secret":"4a2b59d3ff","server":"65535","farm":66,"title":"Pumpkin the ginger kitten (by a better camera)","ispublic":1,"isfriend":0,"isfamily":0},{"id":"51364285563","owner":"66084538@N08","secret":"cdf970e368","server":"65535","farm":66,"title":"2021_tavern_kitten_01","ispublic":1,"isfriend":0,"isfamily":0},{"id":"51364803339","owner":"66084538@N08","secret":"f1cc1d9ef2","server":"65535","farm":66,"title":"2021_tavern_kitten_02","ispublic":1,"isfriend":0,"isfamily":0},{"id":"51364037566","owner":"9535010@N04","secret":"7867b59500","server":"65535","farm":66,"title":"Pip Sleeping","ispublic":1,"isfriend":0,"isfamily":0},{"id":"51365051190","owner":"9535010@N04","secret":"997b9f5f30","server":"65535","farm":66,"title":"Pip Sleeping","ispublic":1,"isfriend":0,"isfamily":0},{"id":"51364773544","owner":"9535010@N04","secret":"d6e91f92ed","server":"65535","farm":66,"title":"Pip","ispublic":1,"isfriend":0,"isfamily":0},{"id":"51364254338","owner":"9535010@N04","secret":"cd8a39f09d","server":"65535","farm":66,"title":"Pip","ispublic":1,"isfriend":0,"isfamily":0},{"id":"51363886406","owner":"30098550@N00","secret":"ea4c83bb83","server":"65535","farm":66,"title":"string bean","ispublic":1,"isfriend":0,"isfamily":0},{"id":"51363959078","owner":"193637612@N07","secret":"c5d53f494a","server":"65535","farm":66,"title":"\u3044\u305f\u305a\u3089\u5b50\u732b(Mischivous Kitten)","ispublic":1,"isfriend":0,"isfamily":0},{"id":"51364752505","owner":"136778492@N04","secret":"a982d57302","server":"65535","farm":66,"title":"Listening to some music on International Cat Day (August, 8)","ispublic":1,"isfriend":0,"isfamily":0},{"id":"51364473444","owner":"136778492@N04","secret":"7bb514faa0","server":"65535","farm":66,"title":"Listening to some music on International Cat Day (August, 8)","ispublic":1,"isfriend":0,"isfamily":0},{"id":"14972054973","owner":"127566467@N07","secret":"bbb08bba8c","server":"5600","farm":6,"title":"Greece, Macedonia, kittens' melancholia, Mount Athos","ispublic":1,"isfriend":0,"isfamily":0},{"id":"51364679660","owner":"51504818@N06","secret":"f2e6f8fe06","server":"65535","farm":66,"title":"137","ispublic":1,"isfriend":0,"isfamily":0},{"id":"51363875488","owner":"193514907@N05","secret":"7bf5a554e6","server":"65535","farm":66,"title":"{Rosebud.} Krazy Kitten Headband","ispublic":1,"isfriend":0,"isfamily":0},{"id":"51363864133","owner":"51504818@N06","secret":"6d0d48257c","server":"65535","farm":66,"title":"130. MRD Gezo umbrella","ispublic":1,"isfriend":0,"isfamily":0},{"id":"51362887342","owner":"51504818@N06","secret":"9716f7550c","server":"65535","farm":66,"title":"129. MRD Amazon","ispublic":1,"isfriend":0,"isfamily":0},{"id":"51364658595","owner":"51504818@N06","secret":"372230b768","server":"65535","farm":66,"title":"131. MRD ornaments","ispublic":1,"isfriend":0,"isfamily":0},{"id":"51363643821","owner":"51504818@N06","secret":"516ac14f05","server":"65535","farm":66,"title":"132. MRD sacrifice scene","ispublic":1,"isfriend":0,"isfamily":0},{"id":"51363864013","owner":"51504818@N06","secret":"a5c65352cc","server":"65535","farm":66,"title":"133. MRD Ghezo skull","ispublic":1,"isfriend":0,"isfamily":0},{"id":"51362887162","owner":"51504818@N06","secret":"a2d682e124","server":"65535","farm":66,"title":"134. MRD Gezo umbrella copy","ispublic":1,"isfriend":0,"isfamily":0},{"id":"51363643726","owner":"51504818@N06","secret":"e9723f64dc","server":"65535","farm":66,"title":"135. MRD Ghezo skull","ispublic":1,"isfriend":0,"isfamily":0},{"id":"51364377539","owner":"51504818@N06","secret":"be50a65c6d","server":"65535","farm":66,"title":"8-1","ispublic":1,"isfriend":0,"isfamily":0},{"id":"51362885137","owner":"51504818@N06","secret":"e77786e8e1","server":"65535","farm":66,"title":"8-2","ispublic":1,"isfriend":0,"isfamily":0},{"id":"51364656250","owner":"51504818@N06","secret":"2b0403ce9b","server":"65535","farm":66,"title":"8-3","ispublic":1,"isfriend":0,"isfamily":0},{"id":"51362868612","owner":"51504818@N06","secret":"a6106c0aae","server":"65535","farm":66,"title":"African brocade","ispublic":1,"isfriend":0,"isfamily":0},{"id":"51364361799","owner":"51504818@N06","secret":"8224f9442c","server":"65535","farm":66,"title":"7-1. adire","ispublic":1,"isfriend":0,"isfamily":0},{"id":"51364640655","owner":"51504818@N06","secret":"0c1d919fdc","server":"65535","farm":66,"title":"7-2. batik","ispublic":1,"isfriend":0,"isfamily":0},{"id":"51362868477","owner":"51504818@N06","secret":"5be41d5f45","server":"65535","farm":66,"title":"7-3. ewe","ispublic":1,"isfriend":0,"isfamily":0},{"id":"51363846078","owner":"51504818@N06","secret":"cbbe6d0ff0","server":"65535","farm":66,"title":"7-4. khasa","ispublic":1,"isfriend":0,"isfamily":0},{"id":"51362868372","owner":"51504818@N06","secret":"a7dbc873b7","server":"65535","farm":66,"title":"7-5. kente","ispublic":1,"isfriend":0,"isfamily":0},{"id":"51363845983","owner":"51504818@N06","secret":"db039b68a5","server":"65535","farm":66,"title":"7-6 korhogo","ispublic":1,"isfriend":0,"isfamily":0},{"id":"51363625496","owner":"51504818@N06","secret":"5e8505d6f1","server":"65535","farm":66,"title":"7-7 kuba","ispublic":1,"isfriend":0,"isfamily":0},{"id":"51362868227","owner":"51504818@N06","secret":"d368d208b6","server":"65535","farm":66,"title":"7-8 manjaka","ispublic":1,"isfriend":0,"isfamily":0},{"id":"51362868172","owner":"51504818@N06","secret":"eb2ea7ca90","server":"65535","farm":66,"title":"7-9 brocade","ispublic":1,"isfriend":0,"isfamily":0},{"id":"51364361454","owner":"51504818@N06","secret":"5d21280f06","server":"65535","farm":66,"title":"7-10 African tie dye","ispublic":1,"isfriend":0,"isfamily":0},{"id":"51363625361","owner":"51504818@N06","secret":"e24d71f12b","server":"65535","farm":66,"title":"7-11 African print fabrics","ispublic":1,"isfriend":0,"isfamily":0},{"id":"51363625301","owner":"51504818@N06","secret":"3d9bf005b8","server":"65535","farm":66,"title":"7-12","ispublic":1,"isfriend":0,"isfamily":0},{"id":"51363845748","owner":"51504818@N06","secret":"2bf665890e","server":"65535","farm":66,"title":"7-13","ispublic":1,"isfriend":0,"isfamily":0},{"id":"51364640155","owner":"51504818@N06","secret":"10c1381557","server":"65535","farm":66,"title":"7-14","ispublic":1,"isfriend":0,"isfamily":0},{"id":"51362867947","owner":"51504818@N06","secret":"914543c101","server":"65535","farm":66,"title":"7-15","ispublic":1,"isfriend":0,"isfamily":0},{"id":"51363625151","owner":"51504818@N06","secret":"44d0ec2f57","server":"65535","farm":66,"title":"7-16","ispublic":1,"isfriend":0,"isfamily":0},{"id":"51364361119","owner":"51504818@N06","secret":"e08e3d64ec","server":"65535","farm":66,"title":"7-17","ispublic":1,"isfriend":0,"isfamily":0},{"id":"51364639925","owner":"51504818@N06","secret":"3d3673b269","server":"65535","farm":66,"title":"7-18","ispublic":1,"isfriend":0,"isfamily":0},{"id":"51363625026","owner":"51504818@N06","secret":"182a6299bc","server":"65535","farm":66,"title":"7-19","ispublic":1,"isfriend":0,"isfamily":0},{"id":"51364361034","owner":"51504818@N06","secret":"cb0c5518f0","server":"65535","farm":66,"title":"7-20","ispublic":1,"isfriend":0,"isfamily":0},{"id":"51363619786","owner":"51504818@N06","secret":"45ced70a20","server":"65535","farm":66,"title":"6-1","ispublic":1,"isfriend":0,"isfamily":0},{"id":"51364634780","owner":"51504818@N06","secret":"82686f34c9","server":"65535","farm":66,"title":"6-3","ispublic":1,"isfriend":0,"isfamily":0},{"id":"51364634810","owner":"51504818@N06","secret":"fc2c65664e","server":"65535","farm":66,"title":"6-2","ispublic":1,"isfriend":0,"isfamily":0},{"id":"51364355809","owner":"51504818@N06","secret":"d4aa80b455","server":"65535","farm":66,"title":"6-4","ispublic":1,"isfriend":0,"isfamily":0},{"id":"51364355779","owner":"51504818@N06","secret":"d9644cdfdc","server":"65535","farm":66,"title":"6-5","ispublic":1,"isfriend":0,"isfamily":0},{"id":"51362862787","owner":"51504818@N06","secret":"be7969c31b","server":"65535","farm":66,"title":"6-6","ispublic":1,"isfriend":0,"isfamily":0},{"id":"51364634660","owner":"51504818@N06","secret":"8e774f5cd4","server":"65535","farm":66,"title":"6-7","ispublic":1,"isfriend":0,"isfamily":0},{"id":"51363619516","owner":"51504818@N06","secret":"db4c64ba00","server":"65535","farm":66,"title":"6-8","ispublic":1,"isfriend":0,"isfamily":0},{"id":"51363619496","owner":"51504818@N06","secret":"983b8527b8","server":"65535","farm":66,"title":"6-9","ispublic":1,"isfriend":0,"isfamily":0},{"id":"51364634560","owner":"51504818@N06","secret":"f51572d69c","server":"65535","farm":66,"title":"6-10","ispublic":1,"isfriend":0,"isfamily":0},{"id":"51363839898","owner":"51504818@N06","secret":"354c35dc50","server":"65535","farm":66,"title":"6-11","ispublic":1,"isfriend":0,"isfamily":0},{"id":"51364355564","owner":"51504818@N06","secret":"512d1f29f1","server":"65535","farm":66,"title":"6-12","ispublic":1,"isfriend":0,"isfamily":0},{"id":"51364634490","owner":"51504818@N06","secret":"077dde6486","server":"65535","farm":66,"title":"6-13","ispublic":1,"isfriend":0,"isfamily":0},{"id":"51364355489","owner":"51504818@N06","secret":"09b9c27801","server":"65535","farm":66,"title":"6-14","ispublic":1,"isfriend":0,"isfamily":0},{"id":"51363619346","owner":"51504818@N06","secret":"94a27a967b","server":"65535","farm":66,"title":"6-15","ispublic":1,"isfriend":0,"isfamily":0},{"id":"51364355459","owner":"51504818@N06","secret":"97681abe96","server":"65535","farm":66,"title":"6-16","ispublic":1,"isfriend":0,"isfamily":0},{"id":"51364355389","owner":"51504818@N06","secret":"6636f35400","server":"65535","farm":66,"title":"6-17","ispublic":1,"isfriend":0,"isfamily":0},{"id":"51363839688","owner":"51504818@N06","secret":"b6598907e3","server":"65535","farm":66,"title":"6-18","ispublic":1,"isfriend":0,"isfamily":0},{"id":"51364355319","owner":"51504818@N06","secret":"e08b11253d","server":"65535","farm":66,"title":"6-19","ispublic":1,"isfriend":0,"isfamily":0},{"id":"51362862262","owner":"51504818@N06","secret":"cc875ecac9","server":"65535","farm":66,"title":"6-20. Adinkra","ispublic":1,"isfriend":0,"isfamily":0},{"id":"51363613766","owner":"51504818@N06","secret":"6c9a28a547","server":"65535","farm":66,"title":"5-3.86","ispublic":1,"isfriend":0,"isfamily":0},{"id":"51364350324","owner":"51504818@N06","secret":"54427a190f","server":"65535","farm":66,"title":"5-2","ispublic":1,"isfriend":0,"isfamily":0},{"id":"51363834718","owner":"51504818@N06","secret":"22f3d7fe5a","server":"65535","farm":66,"title":"5-1","ispublic":1,"isfriend":0,"isfamily":0},{"id":"51362857152","owner":"51504818@N06","secret":"c1c86468ed","server":"65535","farm":66,"title":"5-5","ispublic":1,"isfriend":0,"isfamily":0},{"id":"51364350314","owner":"51504818@N06","secret":"1840ce65eb","server":"65535","farm":66,"title":"5-4","ispublic":1,"isfriend":0,"isfamily":0},{"id":"51364629210","owner":"51504818@N06","secret":"9430364c61","server":"65535","farm":66,"title":"5-6","ispublic":1,"isfriend":0,"isfamily":0},{"id":"51364629180","owner":"51504818@N06","secret":"50d7de4093","server":"65535","farm":66,"title":"5-7","ispublic":1,"isfriend":0,"isfamily":0},{"id":"51363613631","owner":"51504818@N06","secret":"693f805329","server":"65535","farm":66,"title":"5-8","ispublic":1,"isfriend":0,"isfamily":0},{"id":"51363834503","owner":"51504818@N06","secret":"c294729d6a","server":"65535","farm":66,"title":"5-9","ispublic":1,"isfriend":0,"isfamily":0},{"id":"51363613581","owner":"51504818@N06","secret":"f4d6e104f8","server":"65535","farm":66,"title":"5-10","ispublic":1,"isfriend":0,"isfamily":0},{"id":"51364629065","owner":"51504818@N06","secret":"0a8fa9b869","server":"65535","farm":66,"title":"5-11","ispublic":1,"isfriend":0,"isfamily":0},{"id":"51364350099","owner":"51504818@N06","secret":"026a47e737","server":"65535","farm":66,"title":"5-12","ispublic":1,"isfriend":0,"isfamily":0},{"id":"51363613511","owner":"51504818@N06","secret":"bff24e3218","server":"65535","farm":66,"title":"5-13","ispublic":1,"isfriend":0,"isfamily":0},{"id":"51363613461","owner":"51504818@N06","secret":"1940a18db1","server":"65535","farm":66,"title":"5-14","ispublic":1,"isfriend":0,"isfamily":0},{"id":"51364628945","owner":"51504818@N06","secret":"b281374f44","server":"65535","farm":66,"title":"5-15","ispublic":1,"isfriend":0,"isfamily":0}]},"stat":"ok"}
